ST550-homework5
…
mat<-read.table("../student/student-mat.csv",sep=";",header=TRUE) |> as.tibble()

Warning: `as.tibble()` was deprecated in tibble 2.0.0.
ℹ Please use `as_tibble()` instead.
ℹ The signature and semantics have changed, see `?as_tibble`.

por<-read.table("../student/student-por.csv",sep=";",header=TRUE) |> as.tibble()
mat

# A tibble: 395 × 33
   school sex     age address famsize Pstatus  Medu  Fedu Mjob     Fjob   reason
   <chr>  <chr> <int> <chr>   <chr>   <chr>   <int> <int> <chr>    <chr>  <chr> 
 1 GP     F        18 U       GT3     A           4     4 at_home  teach… course
 2 GP     F        17 U       GT3     T           1     1 at_home  other  course
 3 GP     F        15 U       LE3     T           1     1 at_home  other  other 
 4 GP     F        15 U       GT3     T           4     2 health   servi… home  
 5 GP     F        16 U       GT3     T           3     3 other    other  home  
 6 GP     M        16 U       LE3     T           4     3 services other  reput…
 7 GP     M        16 U       LE3     T           2     2 other    other  home  
 8 GP     F        17 U       GT3     A           4     4 other    teach… home  
 9 GP     M        15 U       LE3     A           3     2 services other  home  
10 GP     M        15 U       GT3     T           3     4 other    other  home  
# ℹ 385 more rows
# ℹ 22 more variables: guardian <chr>, traveltime <int>, studytime <int>,
#   failures <int>, schoolsup <chr>, famsup <chr>, paid <chr>,
#   activities <chr>, nursery <chr>, higher <chr>, internet <chr>,
#   romantic <chr>, famrel <int>, freetime <int>, goout <int>, Dalc <int>,
#   Walc <int>, health <int>, absences <int>, G1 <int>, G2 <int>, G3 <int>

por

# A tibble: 649 × 33
   school sex     age address famsize Pstatus  Medu  Fedu Mjob     Fjob   reason
   <chr>  <chr> <int> <chr>   <chr>   <chr>   <int> <int> <chr>    <chr>  <chr> 
 1 GP     F        18 U       GT3     A           4     4 at_home  teach… course
 2 GP     F        17 U       GT3     T           1     1 at_home  other  course
 3 GP     F        15 U       LE3     T           1     1 at_home  other  other 
 4 GP     F        15 U       GT3     T           4     2 health   servi… home  
 5 GP     F        16 U       GT3     T           3     3 other    other  home  
 6 GP     M        16 U       LE3     T           4     3 services other  reput…
 7 GP     M        16 U       LE3     T           2     2 other    other  home  
 8 GP     F        17 U       GT3     A           4     4 other    teach… home  
 9 GP     M        15 U       LE3     A           3     2 services other  home  
10 GP     M        15 U       GT3     T           3     4 other    other  home  
# ℹ 639 more rows
# ℹ 22 more variables: guardian <chr>, traveltime <int>, studytime <int>,
#   failures <int>, schoolsup <chr>, famsup <chr>, paid <chr>,
#   activities <chr>, nursery <chr>, higher <chr>, internet <chr>,
#   romantic <chr>, famrel <int>, freetime <int>, goout <int>, Dalc <int>,
#   Walc <int>, health <int>, absences <int>, G1 <int>, G2 <int>, G3 <int>
…
There is a warning:

In inner_join(mat, por, by = c("school", "sex", "age", "address",:
Detected an unexpected many-to-many relationship between `x` and `y`. 
Row 79 of `x` matches multiple rows in `y`. 
Row 79 of `y` matches multiple rows in `x`.

What if we allow the “many-to-many” match?

matpor2 <- inner_join(mat, por, by = c ("school","sex","age","address","famsize","Pstatus","Medu","Fedu","Mjob","Fjob","reason","nursery","internet"), relationship = "many-to-many")
matpor2

# A tibble: 382 × 53
   school sex     age address famsize Pstatus  Medu  Fedu Mjob     Fjob   reason
   <chr>  <chr> <int> <chr>   <chr>   <chr>   <int> <int> <chr>    <chr>  <chr> 
 1 GP     F        18 U       GT3     A           4     4 at_home  teach… course
 2 GP     F        17 U       GT3     T           1     1 at_home  other  course
 3 GP     F        15 U       LE3     T           1     1 at_home  other  other 
 4 GP     F        15 U       GT3     T           4     2 health   servi… home  
 5 GP     F        16 U       GT3     T           3     3 other    other  home  
 6 GP     M        16 U       LE3     T           4     3 services other  reput…
 7 GP     M        16 U       LE3     T           2     2 other    other  home  
 8 GP     F        17 U       GT3     A           4     4 other    teach… home  
 9 GP     M        15 U       LE3     A           3     2 services other  home  
10 GP     M        15 U       GT3     T           3     4 other    other  home  
# ℹ 372 more rows
# ℹ 42 more variables: guardian.x <chr>, traveltime.x <int>, studytime.x <int>,
#   failures.x <int>, schoolsup.x <chr>, famsup.x <chr>, paid.x <chr>,
#   activities.x <chr>, nursery <chr>, higher.x <chr>, internet <chr>,
#   romantic.x <chr>, famrel.x <int>, freetime.x <int>, goout.x <int>,
#   Dalc.x <int>, Walc.x <int>, health.x <int>, absences.x <int>, G1.x <int>,
#   G2.x <int>, G3.x <int>, guardian.y <chr>, traveltime.y <int>, …

We will proceed with this data set based on this method of inner_join. Now make an inner join on the data set from two schools on all variables other than G1, G2, G3, paid, and absence.

matpor3 <- inner_join(mat, por, by = c ("school","sex","age","address","famsize","Pstatus","Medu","Fedu","Mjob","Fjob","reason","guardian","traveltime","studytime","failures","schoolsup","famsup","activities","nursery","higher","internet","romantic","famrel","goout","Dalc","Walc","health"),relationship = "many-to-many")
matpor3

# A tibble: 320 × 39
   school sex     age address famsize Pstatus  Medu  Fedu Mjob     Fjob   reason
   <chr>  <chr> <int> <chr>   <chr>   <chr>   <int> <int> <chr>    <chr>  <chr> 
 1 GP     F        18 U       GT3     A           4     4 at_home  teach… course
 2 GP     F        17 U       GT3     T           1     1 at_home  other  course
 3 GP     F        15 U       GT3     T           4     2 health   servi… home  
 4 GP     F        16 U       GT3     T           3     3 other    other  home  
 5 GP     M        16 U       LE3     T           4     3 services other  reput…
 6 GP     M        16 U       LE3     T           2     2 other    other  home  
 7 GP     F        17 U       GT3     A           4     4 other    teach… home  
 8 GP     M        15 U       LE3     A           3     2 services other  home  
 9 GP     M        15 U       GT3     T           3     4 other    other  home  
10 GP     F        15 U       GT3     T           4     4 teacher  health reput…
# ℹ 310 more rows
# ℹ 28 more variables: guardian <chr>, traveltime <int>, studytime <int>,
#   failures <int>, schoolsup <chr>, famsup <chr>, paid.x <chr>,
#   activities <chr>, nursery <chr>, higher <chr>, internet <chr>,
#   romantic <chr>, famrel <int>, freetime.x <int>, goout <int>, Dalc <int>,
#   Walc <int>, health <int>, absences.x <int>, G1.x <int>, G2.x <int>,
#   G3.x <int>, paid.y <chr>, freetime.y <int>, absences.y <int>, G1.y <int>, …
…
